verif/run/results/log/fifo_tb.vcd
$date
    Mar 17, 2026  11:50:33
$end
$version
    TOOL:	xmsim	24.09-s001
$end
$timescale
    1 ps
$end

$scope module fifo_tb_top $end
$var parameter 32 !    FIFO_DEPTH $end
$var parameter 32 "    FIFO_WIDTH $end
$var reg       1 #    wrclk $end
$var reg       1 $    rdclk $end
$var real     64 %    wrclk_half $end
$var real     64 &    rdclk_half $end

$scope module dut_if $end
$var parameter 32 '    FIFO_WIDTH $end
$var wire      1 (    wrclk  $end
$var wire      1 )    rdclk  $end
$var reg       1 *    wrst_n $end
$var reg       1 +    wr_en $end
$var reg      64 ,    data_in [63:0] $end
$var reg       1 -    rrst_n $end
$var reg       1 .    rd_en $end
$var reg      64 /    data_out [63:0] $end
$var reg       1 0    fifo_full $end
$var reg       1 1    fifo_empty $end
$upscope $end


$scope module dut $end
$var parameter 32 2    FIFO_DEPTH $end
$var parameter 32 3    FIFO_WIDTH $end
$var wire      1 (    wrclk  $end
$var wire      1 4    wrst_n  $end
$var wire      1 )    rdclk  $end
$var wire      1 5    rrst_n  $end
$var wire      1 6    wr_en  $end
$var wire      1 7    rd_en  $end
$var wire     64 8    data_in [63:0] $end
$var reg      64 9    data_out [63:0] $end
$var reg       1 :    fifo_full $end
$var reg       1 ;    fifo_empty $end
$var parameter 32 <    PTR_WIDTH $end
$var reg       4 =    g_wptr_sync [3:0] $end
$var reg       4 >    g_rptr_sync [3:0] $end
$var reg       4 ?    g_wptr [3:0] $end
$var reg       4 @    g_rptr [3:0] $end
$var reg       4 A    b_wptr [3:0] $end
$var reg       4 B    b_rptr [3:0] $end
$var wire      3 C    waddr [2:0] $end
$var wire      3 D    raddr [2:0] $end

$scope module sync_wptr $end
$var parameter 32 E    WIDTH $end
$var wire      1 )    clk  $end
$var wire      1 5    rst_n  $end
$var wire      4 F    d_in [3:0] $end
$var reg       4 G    d_out [3:0] $end
$var reg       4 H    q1 [3:0] $end
$upscope $end


$scope module sync_rptr $end
$var parameter 32 I    WIDTH $end
$var wire      1 (    clk  $end
$var wire      1 4    rst_n  $end
$var wire      4 J    d_in [3:0] $end
$var reg       4 K    d_out [3:0] $end
$var reg       4 L    q1 [3:0] $end
$upscope $end


$scope module wrptr_h $end
$var parameter 32 M    PTR_WIDTH $end
$var wire      1 (    wrclk  $end
$var wire      1 4    wrst_n  $end
$var wire      1 6    wr_en  $end
$var wire      4 N    g_rptr_sync [3:0] $end
$var reg       4 O    b_wptr [3:0] $end
$var reg       4 P    g_wptr [3:0] $end
$var reg       1 Q    fifo_full $end
$var reg       4 R    b_wptr_next [3:0] $end
$var reg       4 S    g_wptr_next [3:0] $end
$var reg       1 T    wrap_around $end
$var wire      1 U    wfull  $end
$upscope $end


$scope module rdptr_h $end
$var parameter 32 V    PTR_WIDTH $end
$var wire      1 )    rdclk  $end
$var wire      1 5    rrst_n  $end
$var wire      1 7    rd_en  $end
$var wire      4 W    g_wptr_sync [3:0] $end
$var reg       4 X    b_rptr [3:0] $end
$var reg       4 Y    g_rptr [3:0] $end
$var reg       1 Z    fifo_empty $end
$var reg       4 [    b_rptr_next [3:0] $end
$var reg       4 \    g_rptr_next [3:0] $end
$var wire      1 ]    rempty  $end
$upscope $end


$scope module fifom $end
$var parameter 32 ^    FIFO_DEPTH $end
$var parameter 32 _    FIFO_WIDTH $end
$var parameter 32 `    PTR_WIDTH $end
$var wire      1 (    wrclk  $end
$var wire      1 6    wr_en  $end
$var wire      1 )    rdclk  $end
$var wire      1 7    rd_en  $end
$var wire      4 a    b_wptr [3:0] $end
$var wire      4 b    b_rptr [3:0] $end
$var wire     64 8    data_in [63:0] $end
$var wire      1 c    fifo_full  $end
$var wire      1 d    fifo_empty  $end
$var reg      64 e    data_out [63:0] $end
$var reg      64 f    fifo[0] [63:0] $end
$var reg      64 g    fifo[1] [63:0] $end
$var reg      64 h    fifo[2] [63:0] $end
$var reg      64 i    fifo[3] [63:0] $end
$var reg      64 j    fifo[4] [63:0] $end
$var reg      64 k    fifo[5] [63:0] $end
$var reg      64 l    fifo[6] [63:0] $end
$var reg      64 m    fifo[7] [63:0] $end
$upscope $end

$upscope $end


$scope task run_one_test $end
$var reg       1 n    found $end
$upscope $end


$scope task print_summary $end
$var integer  32 o    num_pass $end
$var integer  32 p    num_fail $end
$upscope $end

$upscope $end

$enddefinitions $end
$dumpvars
b11 `
b1000000 _
b1000 ^
b11 V
b11 M
b11 I
b11 E
b11 <
b1000000 3
b1000 2
b1000000 '
b1000000 "
b1000 !
0#
0$
r5 %
r6.5 &
0(
0)
0*
0+
b0 ,
0-
0.
bx /
00
11
04
05
06
07
b0 8
bx 9
0:
1;
bx =
bx >
b0 ?
b0 @
b0 A
b0 B
bz C
bz D
b0 F
bx G
bx H
b0 J
bx K
bx L
bx N
b0 O
b0 P
0Q
b0 R
b0 S
xT
xU
bx W
b0 X
b0 Y
1Z
b0 [
b0 \
x]
b0 a
b0 b
0c
1d
bx e
bx f
bx g
bx h
bx i
bx j
bx k
bx l
bx m
0n
b0 o
b0 p
$end
#5000
1#
1(
b0 L
b0 K
b0 >
b0 N
0U
#6500
1$
1)
b0 H
b0 G
b0 =
b0 W
1]
#10000
0#
0(
#13000
0$
0)
#15000
1#
1(
#19500
1$
1)
#20000
0#
0(
#25000
1#
1(
#26000
0$
0)
#30000
0#
0(
#32500
1$
1)
#35000
1#
1(
#39000
0$
0)
#40000
0#
0(
#45000
1#
1(
#45500
1$
1)
#50000
0#
0(
#52000
0$
0)
#55000
1#
1(
#56000
1*
1-
15
14
#58500
1$
1)
#60000
0#
0(
#65000
0$
1#
1(
0)
#66000
1n
#70000
0#
0(
#71500
1$
1)
#75000
1#
1(
#76000
1+
b1001001001111011110101000111100010101001010110100111100100111010 ,
b1001001001111011110101000111100010101001010110100111100100111010 8
16
b1 R
b1 S
#78000
0$
0)
#80000
0#
0(
#84500
1$
1)
#85000
1#
1(
b1 O
b1 P
b1001001001111011110101000111100010101001010110100111100100111010 f
b10 R
b11 S
b1 ?
b1 A
b1 a
b1 F
#86000
b110001001110010111011010011000011111101100110000100111110110 ,
b110001001110010111011010011000011111101100110000100111110110 8
#90000
0#
0(
#91000
0$
0)
#95000
1#
1(
b10 O
b11 P
b110001001110010111011010011000011111101100110000100111110110 g
b11 R
b10 S
b11 ?
b10 A
b10 a
b11 F
#96000
b11100011010110110010100010001011001101101000001011000111111011 ,
b11100011010110110010100010001011001101101000001011000111111011 8
#97500
1$
1)
b11 H
#100000
0#
0(
#104000
0$
0)
#105000
1#
1(
b11 O
b10 P
b11100011010110110010100010001011001101101000001011000111111011 h
b100 R
b110 S
b10 ?
b11 A
b11 a
b10 F
#106000
b111110001111111011110100000001110001110100001110111100101111100 ,
b111110001111111011110100000001110001110100001110111100101111100 8
#110000
0#
0(
#110500
1$
1)
b10 H
b11 G
b11 =
b11 W
0]
#115000
1#
1(
b100 O
b110 P
b111110001111111011110100000001110001110100001110111100101111100 i
b101 R
b111 S
b110 ?
b100 A
b100 a
b110 F
#116000
b101001111011101110000110101100101010000100100100101010100011001 ,
b101001111011101110000110101100101010000100100100101010100011001 8
#117000
0$
0)
#120000
0#
0(
#123500
1$
1)
0Z
b110 H
b10 G
b10 =
0;
0d
b10 W
01
#125000
1#
1(
b101 O
b111 P
b101001111011101110000110101100101010000100100100101010100011001 j
b110 R
b101 S
b111 ?
b101 A
b101 a
b111 F
#126000
b1001111110001011001110000001000010110000101111010101000000010000 ,
b1001111110001011001110000001000010110000101111010101000000010000 8
#130000
0$
0#
0(
0)
#135000
1#
1(
b110 O
b101 P
b1001111110001011001110000001000010110000101111010101000000010000 k
b111 R
b100 S
b101 ?
b110 A
b110 a
b101 F
#136000
b1110000100000101110000001011000101100000010011111000000110011101 ,
b1110000100000101110000001011000101100000010011111000000110011101 8
#136500
1$
1)
b101 H
b110 G
b110 =
b110 W
#140000
0#
0(
#143000
0$
0)
#145000
1#
1(
b111 O
b100 P
b1110000100000101110000001011000101100000010011111000000110011101 l
b1000 R
b1100 S
1U
b100 ?
b111 A
b111 a
b100 F
#146000
b1001010110010000001101000111001000100110011011111101011001111000 ,
b1001010110010000001101000111001000100110011011111101011001111000 8
#149500
1$
1)
b100 H
b101 G
b101 =
b101 W
#150000
0#
0(
#150500
1.
17
b1 [
b1 \
#155000
1#
1(
1Q
b1000 O
b1100 P
b1001010110010000001101000111001000100110011011111101011001111000 m
b1100 ?
b1000 A
1:
1c
b1000 a
b1100 F
10
#156000
0$
0+
b0 ,
b0 8
06
0)
#160000
0#
0(
#162500
1$
1)
b1 X
b1 Y
b1001001001111011110101000111100010101001010110100111100100111010 e
b1100 H
b100 G
b10 [
b11 \
b100 =
b1001001001111011110101000111100010101001010110100111100100111010 9
b1 @
b1 B
b1 b
b1 J
b100 W
b1001001001111011110101000111100010101001010110100111100100111010 /
#165000
1#
1(
b1 L
#169000
0$
0)
#170000
0#
0(
#175000
1#
1(
b1 K
b1 >
b1 N
0U
#175500
1$
1)
b10 X
b11 Y
b110001001110010111011010011000011111101100110000100111110110 e
b1100 G
b11 [
b10 \
b1100 =
b110001001110010111011010011000011111101100110000100111110110 9
b11 @
b10 B
b10 b
b11 J
b1100 W
b110001001110010111011010011000011111101100110000100111110110 /
#180000
0#
0(
#182000
0$
0)
#185000
1#
1(
0Q
b11 L
0:
0c
00
#188500
1$
1)
b11 X
b10 Y
b11100011010110110010100010001011001101101000001011000111111011 e
b100 [
b110 \
b11100011010110110010100010001011001101101000001011000111111011 9
b10 @
b11 B
b11 b
b10 J
b11100011010110110010100010001011001101101000001011000111111011 /
#190000
0#
0(
#195000
0$
1#
1(
0)
b10 L
b11 K
b11 >
b11 N
#200000
0#
0(
#201500
1$
1)
b100 X
b110 Y
b111110001111111011110100000001110001110100001110111100101111100 e
b101 [
b111 \
b111110001111111011110100000001110001110100001110111100101111100 9
b110 @
b100 B
b100 b
b110 J
b111110001111111011110100000001110001110100001110111100101111100 /
#205000
1#
1(
b110 L
b10 K
b10 >
b10 N
#208000
0$
0)
#210000
0#
0(
#214500
1$
1)
b101 X
b111 Y
b101001111011101110000110101100101010000100100100101010100011001 e
b110 [
b101 \
b101001111011101110000110101100101010000100100100101010100011001 9
b111 @
b101 B
b101 b
b111 J
b101001111011101110000110101100101010000100100100101010100011001 /
#215000
1#
1(
b111 L
b110 K
b110 >
b110 N
#220000
0#
0(
#221000
0$
0)
#225000
1#
1(
b111 K
b111 >
b111 N
#227500
1$
1)
b110 X
b101 Y
b1001111110001011001110000001000010110000101111010101000000010000 e
b111 [
b100 \
b1001111110001011001110000001000010110000101111010101000000010000 9
b101 @
b110 B
b110 b
b101 J
b1001111110001011001110000001000010110000101111010101000000010000 /
#230000
0#
0(
#234000
0$
0)
#235000
1#
1(
b101 L
#240000
0#
0(
#240500
1$
1)
b111 X
b100 Y
b1110000100000101110000001011000101100000010011111000000110011101 e
b1000 [
b1100 \
1]
b1110000100000101110000001011000101100000010011111000000110011101 9
b100 @
b111 B
b111 b
b100 J
b1110000100000101110000001011000101100000010011111000000110011101 /
#245000
1#
1(
b100 L
b101 K
b101 >
b101 N
#247000
0$
0)
#250000
0#
0(
#253500
1$
1)
1Z
b1000 X
b1100 Y
b1001010110010000001101000111001000100110011011111101011001111000 e
b1001010110010000001101000111001000100110011011111101011001111000 9
b1100 @
b1000 B
1;
1d
b1000 b
b1100 J
11
b1001010110010000001101000111001000100110011011111101011001111000 /
#254500
0.
07
#255000
1#
1(
b1100 L
b100 K
b100 >
b100 N
#260000
0$
0#
0(
0)
#265000
1#
1(
b1100 K
b1100 >
b1100 N
